…
# Using multivariate normal distribution

## log(cr) ~ log(dbh)
```{r}
p2 <- tar_read(fit_lm_summary_lm)
```


r$> p2
# A tibble: 230,753 × 15
   variable         mean       sd      mad       q2.5         q5        q25        q50        q75        q95      q97.5  rhat ess_bulk ess_tail .join_data
   <fct>           <dbl>    <dbl>    <dbl>      <dbl>      <dbl>      <dbl>      <dbl>      <dbl>      <dbl>      <dbl> <dbl>    <dbl>    <dbl>      <dbl>
 1 lp__       72673.     35.6     35.9     72602.     72612.     72649.     72673.     72698.     72731.     72738.      1.01     128.     274.         NA
 2 Omega[1,1]     1       0        0           1          1          1          1          1          1          1      NA         NA       NA          NA
 3 tau[1]         0.249   0.00386  0.00377     0.241      0.242      0.246      0.249      0.251      0.255      0.256   1.00     428.     304.         NA
 4 gamma[1,1]    -0.198   0.00689  0.00744    -0.211     -0.210     -0.203     -0.199     -0.193     -0.187     -0.185   1.01     390.     266.         NA
 5 beta[1,1]      0.368   0.0393   0.0422      0.292      0.307      0.340      0.368      0.396      0.433      0.445   1.00     377.     282.         NA
 6 beta[2,1]      0.236   0.00428  0.00462     0.228      0.229      0.233      0.236      0.239      0.243      0.245   1.02     437.     124.         NA
 7 beta[3,1]      0.268   0.0303   0.0298      0.209      0.223      0.247      0.265      0.287      0.318      0.324   1.03     517.     215.         NA
 8 beta[4,1]      0.0544  0.00357  0.00379     0.0486     0.0489     0.0519     0.0545     0.0570     0.0598     0.0609  1.04     345.     313.         NA
 9 beta[5,1]      0.251   0.0185   0.0193      0.217      0.221      0.239      0.252      0.265      0.281      0.285   1.01     465.     229.         NA
10 beta[6,1]      0.262   0.0120   0.0124      0.239      0.243      0.253      0.262      0.269      0.281      0.286   1.01     413.     268.         NA
# ℹ 230,743 more rows
# ℹ Use `print(n = ...)` to see more rows
…
